﻿[
  {
    "gmailaccount": "suntzu445@gmail.com",
    "gcloudprojectid": "driveapi-221320",
    "gpubsubtopic": "projects/driveapi-221320/topics/SunTzu445Gmail",
    "gpubsubscription": "SunTzu445Gmail",
    "googleappcredsfile": "driveApi-bde5b5084d45.json",
    "clientsecretfile": "client_secret.json"
  }
]