﻿[
  {
    "email": "sunil.a.thomas@gmail.com",
    "number": "401-743-4429"
  },
  {
    "email": "sunil.thomas_contractor@jmfamily.com",
    "number": "954-418-5224"
  },
  {
    "email": "prajesh.neupane@jmfamily.com",
    "number": "954-363-6950"
  }
]